Customer Analysis - EDA | Brett C. Moxham
…
invoice_date
0
1
2010-12-01 08:26:00
2011-12-09 12:50:00
2011-07-20 11:22:00
22050

Looking at our new data frame, we have a lot more data to work with. We can now organize our data in so many different ways, such as hour of day, or day of the week. Speaking of day of the week, It looks like we only have sales day for day 6. Meaning that sales are not processed one day out of the week. We need to know whether Sunday or Monday equates to day 1 of 7.

sales %>% 
  filter(date == "2010-12-01") %>% 
  select(date, weekday)

## # A tibble: 3,098 x 2
##    date       weekday
##    <date>       <dbl>
##  1 2010-12-01       4
##  2 2010-12-01       4
##  3 2010-12-01       4
##  4 2010-12-01       4
##  5 2010-12-01       4
##  6 2010-12-01       4
##  7 2010-12-01       4
##  8 2010-12-01       4
##  9 2010-12-01       4
## 10 2010-12-01       4
## # ... with 3,088 more rows
…
