…
This first plot is nice but it’s hard to compare between countries. We need to reorder our country name somehow. Let add together the total energy usage by type to see how much total energy each country used and use that to order our plot.

energy_total <- energy_type_l2 %>% 
  select(-c(`2016`, `2017`)) %>% 
  group_by(country_name) %>% 
  mutate(
    energy_total = sum(`2018`)/1000,
    `2018` = `2018`/1000
    
  )

energy_total

## # A tibble: 259 x 6
## # Groups:   country_name [37]
##    country country_name type                 level   `2018` energy_total
##    <chr>   <chr>        <chr>                <chr>    <dbl>        <dbl>
##  1 BE      Belgium      Conventional thermal Level 1 30.1           69.2
##  2 BE      Belgium      Nuclear              Level 1 27.0           69.2
##  3 BE      Belgium      Hydro                Level 1  1.24          69.2
##  4 BE      Belgium      Wind                 Level 1  7.18          69.2
##  5 BE      Belgium      Solar                Level 1  3.49          69.2
##  6 BE      Belgium      Geothermal           Level 1  0             69.2
##  7 BE      Belgium      Other                Level 1  0.219         69.2
##  8 BG      Bulgaria     Conventional thermal Level 1 19.3           41.7
##  9 BG      Bulgaria     Nuclear              Level 1 15.3           41.7
## 10 BG      Bulgaria     Hydro                Level 1  4.69          41.7
## # ... with 249 more rows
…
